{
  "schemaVersion": 1,
  "id": "kamalak",
  "version": "${version}",

  "name": "Kamalak",
  "description": "Rainbow text",
  "authors": [
    "flirora"
  ],
  "contact": {
    "homepage": "https://kyarei.gitlab.io/",
    "sources": "https://gitlab.com/Kyarei/kamalak"
  },

  "license": "MIT",
  "icon": "assets/modid/icon.png",

  "environment": "*",
  "entrypoints": {
    "main": [
      "flirora.kamalak.KamalakMod"
    ]
  },
  "mixins": [
    "kamalak.mixins.json"
  ],

  "depends": {
    "fabricloader": ">=0.7.2",
    "fabric": "*",
    "minecraft": "1.15.x"
  },
  "suggests": {
    "flamingo": "*"
  }
}
